Tracers,Reporting Limit
Aluminum,20
Arsenic,0.2
Barium,20
Beryllium,0.2
Cadmium,0.2
Chromium,4
Cobalt,5
Copper,10
Iron,50
Lead,5
Magnesium,50
Manganese,2
Nickel,4
Potassium,200
Strontium,20
Uranium,0.2
Vanadium,10
Zinc,10
